%YAML 1.1
%TAG !u! tag:unity3d.com,2011:
--- !u!29 &1
OcclusionCullingSettings:
  m_ObjectHideFlags: 0
  serializedVersion: 2
  m_OcclusionBakeSettings:
    smallestOccluder: 5
    smallestHole: 0.25
    backfaceThreshold: 100
  m_SceneGUID: 00000000000000000000000000000000
  m_OcclusionCullingData: {fileID: 0}
--- !u!104 &2
RenderSettings:
  m_ObjectHideFlags: 0
  serializedVersion: 9
  m_Fog: 0
  m_FogColor: {r: 0.5, g: 0.5, b: 0.5, a: 1}
  m_FogMode: 3
  m_FogDensity: 0.01
  m_LinearFogStart: 0
  m_LinearFogEnd: 300
  m_AmbientSkyColor: {r: 0.212, g: 0.227, b: 0.259, a: 1}
  m_AmbientEquatorColor: {r: 0.114, g: 0.125, b: 0.133, a: 1}
  m_AmbientGroundColor: {r: 0.047, g: 0.043, b: 0.035, a: 1}
  m_AmbientIntensity: 1
  m_AmbientMode: 3
  m_SubtractiveShadowColor: {r: 0.42, g: 0.478, b: 0.627, a: 1}
  m_SkyboxMaterial: {fileID: 0}
  m_HaloStrength: 0.5
  m_FlareStrength: 1
  m_FlareFadeSpeed: 3
  m_HaloTexture: {fileID: 0}
  m_SpotCookie: {fileID: 10001, guid: 0000000000000000e000000000000000, type: 0}
  m_DefaultReflectionMode: 0
  m_DefaultReflectionResolution: 128
  m_ReflectionBounces: 1
  m_ReflectionIntensity: 1
  m_CustomReflection: {fileID: 0}
  m_Sun: {fileID: 0}
  m_IndirectSpecularColor: {r: 0, g: 0, b: 0, a: 1}
  m_UseRadianceAmbientProbe: 0
--- !u!157 &3
LightmapSettings:
  m_ObjectHideFlags: 0
  serializedVersion: 11
  m_GIWorkflowMode: 1
  m_GISettings:
    serializedVersion: 2
    m_BounceScale: 1
    m_IndirectOutputScale: 1
    m_AlbedoBoost: 1
    m_EnvironmentLightingMode: 0
    m_EnableBakedLightmaps: 0
    m_EnableRealtimeLightmaps: 0
  m_LightmapEditorSettings:
    serializedVersion: 12
    m_Resolution: 2
    m_BakeResolution: 40
    m_AtlasSize: 1024
    m_AO: 0
    m_AOMaxDistance: 1
    m_CompAOExponent: 1
    m_CompAOExponentDirect: 0
    m_ExtractAmbientOcclusion: 0
    m_Padding: 2
    m_LightmapParameters: {fileID: 0}
    m_LightmapsBakeMode: 1
    m_TextureCompression: 1
    m_FinalGather: 0
    m_FinalGatherFiltering: 1
    m_FinalGatherRayCount: 256
    m_ReflectionCompression: 2
    m_MixedBakeMode: 2
    m_BakeBackend: 0
    m_PVRSampling: 1
    m_PVRDirectSampleCount: 32
    m_PVRSampleCount: 500
    m_PVRBounces: 2
    m_PVREnvironmentSampleCount: 500
    m_PVREnvironmentReferencePointCount: 2048
    m_PVRFilteringMode: 2
    m_PVRDenoiserTypeDirect: 0
    m_PVRDenoiserTypeIndirect: 0
    m_PVRDenoiserTypeAO: 0
    m_PVRFilterTypeDirect: 0
    m_PVRFilterTypeIndirect: 0
    m_PVRFilterTypeAO: 0
    m_PVREnvironmentMIS: 0
    m_PVRCulling: 1
    m_PVRFilteringGaussRadiusDirect: 1
    m_PVRFilteringGaussRadiusIndirect: 5
    m_PVRFilteringGaussRadiusAO: 2
    m_PVRFilteringAtrousPositionSigmaDirect: 0.5
    m_PVRFilteringAtrousPositionSigmaIndirect: 2
    m_PVRFilteringAtrousPositionSigmaAO: 1
    m_ShowResolutionOverlay: 1
    m_ExportTrainingData: 0
  m_LightingDataAsset: {fileID: 0}
  m_UseShadowmask: 1
--- !u!196 &4
NavMeshSettings:
  serializedVersion: 2
  m_ObjectHideFlags: 0
  m_BuildSettings:
    serializedVersion: 2
    agentTypeID: 0
    agentRadius: 0.5
    agentHeight: 2
    agentSlope: 45
    agentClimb: 0.4
    ledgeDropHeight: 0
    maxJumpAcrossDistance: 0
    minRegionArea: 2
    manualCellSize: 0
    cellSize: 0.16666667
    manualTileSize: 0
    tileSize: 256
    accuratePlacement: 0
    debug:
      m_Flags: 0
  m_NavMeshData: {fileID: 0}
--- !u!1001 &17715868
PrefabInstance:
  m_ObjectHideFlags: 0
  serializedVersion: 2
  m_Modification:
    m_TransformParent: {fileID: 141378674}
    m_Modifications:
    - target: {fileID: 523662259, guid: ddc709fe453312c41974078b83db4f0c, type: 3}
      propertyPath: m_Name
      value: Card (3)
      objectReference: {fileID: 0}
    - target: {fileID: 2038563898, guid: ddc709fe453312c41974078b83db4f0c, type: 3}
      propertyPath: m_LocalPosition.x
      value: 2.1
      objectReference: {fileID: 0}
    - target: {fileID: 2038563898, guid: ddc709fe453312c41974078b83db4f0c, type: 3}
      propertyPath: m_LocalPosition.y
      value: -2.66
      objectReference: {fileID: 0}
    - target: {fileID: 2038563898, guid: ddc709fe453312c41974078b83db4f0c, type: 3}
      propertyPath: m_LocalPosition.z
      value: 0
      objectReference: {fileID: 0}
    - target: {fileID: 2038563898, guid: ddc709fe453312c41974078b83db4f0c, type: 3}
      propertyPath: m_LocalRotation.x
      value: -0
      objectReference: {fileID: 0}
    - target: {fileID: 2038563898, guid: ddc709fe453312c41974078b83db4f0c, type: 3}
      propertyPath: m_LocalRotation.y
      value: -0
      objectReference: {fileID: 0}
    - target: {fileID: 2038563898, guid: ddc709fe453312c41974078b83db4f0c, type: 3}
      propertyPath: m_LocalRotation.z
      value: -0
      objectReference: {fileID: 0}
    - target: {fileID: 2038563898, guid: ddc709fe453312c41974078b83db4f0c, type: 3}
      propertyPath: m_LocalRotation.w
      value: 1
      objectReference: {fileID: 0}
    - target: {fileID: 2038563898, guid: ddc709fe453312c41974078b83db4f0c, type: 3}
      propertyPath: m_RootOrder
      value: 2
      objectReference: {fileID: 0}
    - target: {fileID: 2038563898, guid: ddc709fe453312c41974078b83db4f0c, type: 3}
      propertyPath: m_LocalEulerAnglesHint.x
      value: 0
      objectReference: {fileID: 0}
    - target: {fileID: 2038563898, guid: ddc709fe453312c41974078b83db4f0c, type: 3}
      propertyPath: m_LocalEulerAnglesHint.y
      value: 0
      objectReference: {fileID: 0}
    - target: {fileID: 2038563898, guid: ddc709fe453312c41974078b83db4f0c, type: 3}
      propertyPath: m_LocalEulerAnglesHint.z
      value: 0
      objectReference: {fileID: 0}
    - target: {fileID: 2038563898, guid: ddc709fe453312c41974078b83db4f0c, type: 3}
      propertyPath: m_LocalScale.z
      value: 0.099999994
      objectReference: {fileID: 0}
    - target: {fileID: 523662260, guid: ddc709fe453312c41974078b83db4f0c, type: 3}
      propertyPath: MapPosition.x
      value: 2
      objectReference: {fileID: 0}
    - target: {fileID: 523662260, guid: ddc709fe453312c41974078b83db4f0c, type: 3}
      propertyPath: MapPosition.y
      value: 2
      objectReference: {fileID: 0}
    - target: {fileID: 8960624122508389360, guid: ddc709fe453312c41974078b83db4f0c,
        type: 3}
      propertyPath: m_havePropertiesChanged
      value: 1
      objectReference: {fileID: 0}
    - target: {fileID: 8960624122508389360, guid: ddc709fe453312c41974078b83db4f0c,
        type: 3}
      propertyPath: m_isInputParsingRequired
      value: 1
      objectReference: {fileID: 0}
    - target: {fileID: 1642643752720957356, guid: ddc709fe453312c41974078b83db4f0c,
        type: 3}
      propertyPath: m_havePropertiesChanged
      value: 1
      objectReference: {fileID: 0}
    - target: {fileID: 1642643752720957356, guid: ddc709fe453312c41974078b83db4f0c,
        type: 3}
      propertyPath: m_isInputParsingRequired
      value: 1
      objectReference: {fileID: 0}
    - target: {fileID: 6618650730475966385, guid: ddc709fe453312c41974078b83db4f0c,
        type: 3}
      propertyPath: m_havePropertiesChanged
      value: 1
      objectReference: {fileID: 0}
    - target: {fileID: 6618650730475966385, guid: ddc709fe453312c41974078b83db4f0c,
        type: 3}
      propertyPath: m_isInputParsingRequired
      value: 1
      objectReference: {fileID: 0}
    - target: {fileID: 5284030504769333937, guid: ddc709fe453312c41974078b83db4f0c,
        type: 3}
      propertyPath: m_havePropertiesChanged
      value: 1
      objectReference: {fileID: 0}
    - target: {fileID: 5284030504769333937, guid: ddc709fe453312c41974078b83db4f0c,
        type: 3}
      propertyPath: m_isInputParsingRequired
      value: 1
      objectReference: {fileID: 0}
    - target: {fileID: 8597044568950305786, guid: ddc709fe453312c41974078b83db4f0c,
        type: 3}
      propertyPath: m_IsActive
      value: 0
      objectReference: {fileID: 0}
    m_RemovedComponents: []
  m_SourcePrefab: {fileID: 100100000, guid: ddc709fe453312c41974078b83db4f0c, type: 3}
--- !u!4 &17715869 stripped
Transform:
  m_CorrespondingSourceObject: {fileID: 2038563898, guid: ddc709fe453312c41974078b83db4f0c,
    type: 3}
  m_PrefabInstance: {fileID: 17715868}
  m_PrefabAsset: {fileID: 0}
--- !u!1001 &106371963
PrefabInstance:
  m_ObjectHideFlags: 0
  serializedVersion: 2
  m_Modification:
    m_TransformParent: {fileID: 141378674}
    m_Modifications:
    - target: {fileID: 523662259, guid: ddc709fe453312c41974078b83db4f0c, type: 3}
      propertyPath: m_Name
      value: Card
      objectReference: {fileID: 0}
    - target: {fileID: 2038563898, guid: ddc709fe453312c41974078b83db4f0c, type: 3}
      propertyPath: m_LocalPosition.x
      value: -2.1
      objectReference: {fileID: 0}
    - target: {fileID: 2038563898, guid: ddc709fe453312c41974078b83db4f0c, type: 3}
      propertyPath: m_LocalPosition.y
      value: 3
      objectReference: {fileID: 0}
    - target: {fileID: 2038563898, guid: ddc709fe453312c41974078b83db4f0c, type: 3}
      propertyPath: m_LocalPosition.z
      value: 0
      objectReference: {fileID: 0}
    - target: {fileID: 2038563898, guid: ddc709fe453312c41974078b83db4f0c, type: 3}
      propertyPath: m_LocalRotation.x
      value: -0
      objectReference: {fileID: 0}
    - target: {fileID: 2038563898, guid: ddc709fe453312c41974078b83db4f0c, type: 3}
      propertyPath: m_LocalRotation.y
      value: -0
      objectReference: {fileID: 0}
    - target: {fileID: 2038563898, guid: ddc709fe453312c41974078b83db4f0c, type: 3}
      propertyPath: m_LocalRotation.z
      value: -0
      objectReference: {fileID: 0}
    - target: {fileID: 2038563898, guid: ddc709fe453312c41974078b83db4f0c, type: 3}
      propertyPath: m_LocalRotation.w
      value: 1
      objectReference: {fileID: 0}
    - target: {fileID: 2038563898, guid: ddc709fe453312c41974078b83db4f0c, type: 3}
      propertyPath: m_RootOrder
      value: 3
      objectReference: {fileID: 0}
    - target: {fileID: 2038563898, guid: ddc709fe453312c41974078b83db4f0c, type: 3}
      propertyPath: m_LocalEulerAnglesHint.x
      value: 0
      objectReference: {fileID: 0}
    - target: {fileID: 2038563898, guid: ddc709fe453312c41974078b83db4f0c, type: 3}
      propertyPath: m_LocalEulerAnglesHint.y
      value: 0
      objectReference: {fileID: 0}
    - target: {fileID: 2038563898, guid: ddc709fe453312c41974078b83db4f0c, type: 3}
      propertyPath: m_LocalEulerAnglesHint.z
      value: 0
      objectReference: {fileID: 0}
    - target: {fileID: 2038563898, guid: ddc709fe453312c41974078b83db4f0c, type: 3}
      propertyPath: m_LocalScale.z
      value: 0.099999994
      objectReference: {fileID: 0}
    - target: {fileID: 8960624122508389360, guid: ddc709fe453312c41974078b83db4f0c,
        type: 3}
      propertyPath: m_havePropertiesChanged
      value: 1
      objectReference: {fileID: 0}
    - target: {fileID: 8960624122508389360, guid: ddc709fe453312c41974078b83db4f0c,
        type: 3}
      propertyPath: m_isInputParsingRequired
      value: 1
      objectReference: {fileID: 0}
    - target: {fileID: 1642643752720957356, guid: ddc709fe453312c41974078b83db4f0c,
        type: 3}
      propertyPath: m_havePropertiesChanged
      value: 1
      objectReference: {fileID: 0}
    - target: {fileID: 1642643752720957356, guid: ddc709fe453312c41974078b83db4f0c,
        type: 3}
      propertyPath: m_isInputParsingRequired
      value: 1
      objectReference: {fileID: 0}
    - target: {fileID: 6618650730475966385, guid: ddc709fe453312c41974078b83db4f0c,
        type: 3}
      propertyPath: m_havePropertiesChanged
      value: 1
      objectReference: {fileID: 0}
    - target: {fileID: 6618650730475966385, guid: ddc709fe453312c41974078b83db4f0c,
        type: 3}
      propertyPath: m_isInputParsingRequired
      value: 1
      objectReference: {fileID: 0}
    - target: {fileID: 8597044568950305786, guid: ddc709fe453312c41974078b83db4f0c,
        type: 3}
      propertyPath: m_IsActive
      value: 0
      objectReference: {fileID: 0}
    m_RemovedComponents: []
  m_SourcePrefab: {fileID: 100100000, guid: ddc709fe453312c41974078b83db4f0c, type: 3}
--- !u!4 &106371964 stripped
Transform:
  m_CorrespondingSourceObject: {fileID: 2038563898, guid: ddc709fe453312c41974078b83db4f0c,
    type: 3}
  m_PrefabInstance: {fileID: 106371963}
  m_PrefabAsset: {fileID: 0}
--- !u!1 &141378673
GameObject:
  m_ObjectHideFlags: 0
  m_CorrespondingSourceObject: {fileID: 0}
  m_PrefabInstance: {fileID: 0}
  m_PrefabAsset: {fileID: 0}
  serializedVersion: 6
  m_Component:
  - component: {fileID: 141378674}
  - component: {fileID: 141378675}
  - component: {fileID: 141378677}
  - component: {fileID: 141378678}
  - component: {fileID: 141378676}
  - component: {fileID: 141378679}
  - component: {fileID: 141378680}
  - component: {fileID: 141378681}
  - component: {fileID: 141378682}
  m_Layer: 0
  m_Name: Map
  m_TagString: Untagged
  m_Icon: {fileID: 0}
  m_NavMeshLayer: 0
  m_StaticEditorFlags: 0
  m_IsActive: 1
--- !u!4 &141378674
Transform:
  m_ObjectHideFlags: 0
  m_CorrespondingSourceObject: {fileID: 0}
  m_PrefabInstance: {fileID: 0}
  m_PrefabAsset: {fileID: 0}
  m_GameObject: {fileID: 141378673}
  m_LocalRotation: {x: 0, y: 0, z: 0, w: 1}
  m_LocalPosition: {x: 0, y: 0, z: 0}
  m_LocalScale: {x: 1, y: 1, z: 1}
  m_Children:
  - {fileID: 578053419}
  - {fileID: 925210987}
  - {fileID: 17715869}
  - {fileID: 106371964}
  - {fileID: 1679606269}
  - {fileID: 884446563}
  - {fileID: 215792427}
  - {fileID: 1798906941}
  - {fileID: 1612015532}
  m_Father: {fileID: 0}
  m_RootOrder: 1
  m_LocalEulerAnglesHint: {x: 0, y: 0, z: 0}
--- !u!114 &141378675
MonoBehaviour:
  m_ObjectHideFlags: 0
  m_CorrespondingSourceObject: {fileID: 0}
  m_PrefabInstance: {fileID: 0}
  m_PrefabAsset: {fileID: 0}
  m_GameObject: {fileID: 141378673}
  m_Enabled: 1
  m_EditorHideFlags: 0
  m_Script: {fileID: 11500000, guid: 7e11a476b356a9645a87a68f40eed73b, type: 3}
  m_Name: 
  m_EditorClassIdentifier: 
  _mapInitializer: {fileID: 141378677}
  _combatEngine: {fileID: 141378676}
  _movementEngine: {fileID: 141378679}
  _up: 273
  _down: 274
  _left: 276
  _right: 275
  Hero: {fileID: 141378678}
--- !u!114 &141378676
MonoBehaviour:
  m_ObjectHideFlags: 0
  m_CorrespondingSourceObject: {fileID: 0}
  m_PrefabInstance: {fileID: 0}
  m_PrefabAsset: {fileID: 0}
  m_GameObject: {fileID: 141378673}
  m_Enabled: 1
  m_EditorHideFlags: 0
  m_Script: {fileID: 11500000, guid: a59189e10ac3a6a418d0effd6c187995, type: 3}
  m_Name: 
  m_EditorClassIdentifier: 
--- !u!114 &141378677
MonoBehaviour:
  m_ObjectHideFlags: 0
  m_CorrespondingSourceObject: {fileID: 0}
  m_PrefabInstance: {fileID: 0}
  m_PrefabAsset: {fileID: 0}
  m_GameObject: {fileID: 141378673}
  m_Enabled: 1
  m_EditorHideFlags: 0
  m_Script: {fileID: 11500000, guid: 56714944b0e781f49854b4f27995a096, type: 3}
  m_Name: 
  m_EditorClassIdentifier: 
  _enemyGameObject: {fileID: 5307059954465395002, guid: 09b5f328c1de02d45985d845e8cb1e26,
    type: 3}
  _itemGameObject: {fileID: 7810017680245901683, guid: 5762f2fa082999242bd1b5af583e894e,
    type: 3}
--- !u!114 &141378678
MonoBehaviour:
  m_ObjectHideFlags: 0
  m_CorrespondingSourceObject: {fileID: 0}
  m_PrefabInstance: {fileID: 0}
  m_PrefabAsset: {fileID: 0}
  m_GameObject: {fileID: 141378673}
  m_Enabled: 1
  m_EditorHideFlags: 0
  m_Script: {fileID: 11500000, guid: 64aa93c9253af4d40a2bce96e29a32a6, type: 3}
  m_Name: 
  m_EditorClassIdentifier: 
  Sprite: {fileID: 0}
  Card: {fileID: 0}
  Health: 0
  MaxHealth: 0
  Name: 
  Weapon:
    name: 
    value: 0
    valueDeviance: 
    effect: 
    rarity: 0
    sprite: 
    soundPrefix: 
  Effect: 
--- !u!114 &141378679
MonoBehaviour:
  m_ObjectHideFlags: 0
  m_CorrespondingSourceObject: {fileID: 0}
  m_PrefabInstance: {fileID: 0}
  m_PrefabAsset: {fileID: 0}
  m_GameObject: {fileID: 141378673}
  m_Enabled: 1
  m_EditorHideFlags: 0
  m_Script: {fileID: 11500000, guid: c094361ac4f465d4b9105c66c03cfce6, type: 3}
  m_Name: 
  m_EditorClassIdentifier: 
  _mapInitializer: {fileID: 141378677}
  _cardPrefab: {fileID: 523662259, guid: ddc709fe453312c41974078b83db4f0c, type: 3}
--- !u!114 &141378680
MonoBehaviour:
  m_ObjectHideFlags: 0
  m_CorrespondingSourceObject: {fileID: 0}
  m_PrefabInstance: {fileID: 0}
  m_PrefabAsset: {fileID: 0}
  m_GameObject: {fileID: 141378673}
  m_Enabled: 1
  m_EditorHideFlags: 0
  m_Script: {fileID: 11500000, guid: 742252f65eb5de3478420f74a185b867, type: 3}
  m_Name: 
  m_EditorClassIdentifier: 
  _coinText: {fileID: 1011897626}
--- !u!114 &141378681
MonoBehaviour:
  m_ObjectHideFlags: 0
  m_CorrespondingSourceObject: {fileID: 0}
  m_PrefabInstance: {fileID: 0}
  m_PrefabAsset: {fileID: 0}
  m_GameObject: {fileID: 141378673}
  m_Enabled: 1
  m_EditorHideFlags: 0
  m_Script: {fileID: 11500000, guid: cb8c84243cf458e40affa83e190904a8, type: 3}
  m_Name: 
  m_EditorClassIdentifier: 
  UserData:
    currentHero: 
    coins: 0
    coinsLastRound: 0
    heroUpgrades: []
--- !u!114 &141378682
MonoBehaviour:
  m_ObjectHideFlags: 0
  m_CorrespondingSourceObject: {fileID: 0}
  m_PrefabInstance: {fileID: 0}
  m_PrefabAsset: {fileID: 0}
  m_GameObject: {fileID: 141378673}
  m_Enabled: 1
  m_EditorHideFlags: 0
  m_Script: {fileID: 11500000, guid: e1d5198696e6c04479c45bdd981b5f6a, type: 3}
  m_Name: 
  m_EditorClassIdentifier: 
  SlashEffect: {fileID: 1368901919365055027, guid: a3f132af1632e0940a84ea0f16c22f9f,
    type: 3}
--- !u!1001 &215792426
PrefabInstance:
  m_ObjectHideFlags: 0
  serializedVersion: 2
  m_Modification:
    m_TransformParent: {fileID: 141378674}
    m_Modifications:
    - target: {fileID: 523662259, guid: ddc709fe453312c41974078b83db4f0c, type: 3}
      propertyPath: m_Name
      value: Card
      objectReference: {fileID: 0}
    - target: {fileID: 2038563898, guid: ddc709fe453312c41974078b83db4f0c, type: 3}
      propertyPath: m_LocalPosition.x
      value: -2.1
      objectReference: {fileID: 0}
    - target: {fileID: 2038563898, guid: ddc709fe453312c41974078b83db4f0c, type: 3}
      propertyPath: m_LocalPosition.y
      value: 0.1699999
      objectReference: {fileID: 0}
    - target: {fileID: 2038563898, guid: ddc709fe453312c41974078b83db4f0c, type: 3}
      propertyPath: m_LocalPosition.z
      value: 0
      objectReference: {fileID: 0}
    - target: {fileID: 2038563898, guid: ddc709fe453312c41974078b83db4f0c, type: 3}
      propertyPath: m_LocalRotation.x
      value: -0
      objectReference: {fileID: 0}
    - target: {fileID: 2038563898, guid: ddc709fe453312c41974078b83db4f0c, type: 3}
      propertyPath: m_LocalRotation.y
      value: -0
      objectReference: {fileID: 0}
    - target: {fileID: 2038563898, guid: ddc709fe453312c41974078b83db4f0c, type: 3}
      propertyPath: m_LocalRotation.z
      value: -0
      objectReference: {fileID: 0}
    - target: {fileID: 2038563898, guid: ddc709fe453312c41974078b83db4f0c, type: 3}
      propertyPath: m_LocalRotation.w
      value: 1
      objectReference: {fileID: 0}
    - target: {fileID: 2038563898, guid: ddc709fe453312c41974078b83db4f0c, type: 3}
      propertyPath: m_RootOrder
      value: 6
      objectReference: {fileID: 0}
    - target: {fileID: 2038563898, guid: ddc709fe453312c41974078b83db4f0c, type: 3}
      propertyPath: m_LocalEulerAnglesHint.x
      value: 0
      objectReference: {fileID: 0}
    - target: {fileID: 2038563898, guid: ddc709fe453312c41974078b83db4f0c, type: 3}
      propertyPath: m_LocalEulerAnglesHint.y
      value: 0
      objectReference: {fileID: 0}
    - target: {fileID: 2038563898, guid: ddc709fe453312c41974078b83db4f0c, type: 3}
      propertyPath: m_LocalEulerAnglesHint.z
      value: 0
      objectReference: {fileID: 0}
    - target: {fileID: 523662260, guid: ddc709fe453312c41974078b83db4f0c, type: 3}
      propertyPath: MapPosition.x
      value: 1
      objectReference: {fileID: 0}
    - target: {fileID: 8960624122508389360, guid: ddc709fe453312c41974078b83db4f0c,
        type: 3}
      propertyPath: m_havePropertiesChanged
      value: 1
      objectReference: {fileID: 0}
    - target: {fileID: 8960624122508389360, guid: ddc709fe453312c41974078b83db4f0c,
        type: 3}
      propertyPath: m_isInputParsingRequired
      value: 1
      objectReference: {fileID: 0}
    - target: {fileID: 1642643752720957356, guid: ddc709fe453312c41974078b83db4f0c,
        type: 3}
      propertyPath: m_havePropertiesChanged
      value: 1
      objectReference: {fileID: 0}
    - target: {fileID: 1642643752720957356, guid: ddc709fe453312c41974078b83db4f0c,
        type: 3}
      propertyPath: m_isInputParsingRequired
      value: 1
      objectReference: {fileID: 0}
    - target: {fileID: 6618650730475966385, guid: ddc709fe453312c41974078b83db4f0c,
        type: 3}
      propertyPath: m_havePropertiesChanged
      value: 1
      objectReference: {fileID: 0}
    - target: {fileID: 6618650730475966385, guid: ddc709fe453312c41974078b83db4f0c,
        type: 3}
      propertyPath: m_isInputParsingRequired
      value: 1
      objectReference: {fileID: 0}
    - target: {fileID: 8597044568950305786, guid: ddc709fe453312c41974078b83db4f0c,
        type: 3}
      propertyPath: m_IsActive
      value: 0
      objectReference: {fileID: 0}
    m_RemovedComponents: []
  m_SourcePrefab: {fileID: 100100000, guid: ddc709fe453312c41974078b83db4f0c, type: 3}
--- !u!4 &215792427 stripped
Transform:
  m_CorrespondingSourceObject: {fileID: 2038563898, guid: ddc709fe453312c41974078b83db4f0c,
    type: 3}
  m_PrefabInstance: {fileID: 215792426}
  m_PrefabAsset: {fileID: 0}
--- !u!1 &287743643
GameObject:
  m_ObjectHideFlags: 0
  m_CorrespondingSourceObject: {fileID: 0}
  m_PrefabInstance: {fileID: 0}
  m_PrefabAsset: {fileID: 0}
  serializedVersion: 6
  m_Component:
  - component: {fileID: 287743646}
  - component: {fileID: 287743645}
  - component: {fileID: 287743644}
  m_Layer: 0
  m_Name: EventSystem
  m_TagString: Untagged
  m_Icon: {fileID: 0}
  m_NavMeshLayer: 0
  m_StaticEditorFlags: 0
  m_IsActive: 1
--- !u!114 &287743644
MonoBehaviour:
  m_ObjectHideFlags: 0
  m_CorrespondingSourceObject: {fileID: 0}
  m_PrefabInstance: {fileID: 0}
  m_PrefabAsset: {fileID: 0}
  m_GameObject: {fileID: 287743643}
  m_Enabled: 1
  m_EditorHideFlags: 0
  m_Script: {fileID: 1077351063, guid: f70555f144d8491a825f0804e09c671c, type: 3}
  m_Name: 
  m_EditorClassIdentifier: 
  m_HorizontalAxis: Horizontal
  m_VerticalAxis: Vertical
  m_SubmitButton: Submit
  m_CancelButton: Cancel
  m_InputActionsPerSecond: 10
  m_RepeatDelay: 0.5
  m_ForceModuleActive: 0
--- !u!114 &287743645
MonoBehaviour:
  m_ObjectHideFlags: 0
  m_CorrespondingSourceObject: {fileID: 0}
  m_PrefabInstance: {fileID: 0}
  m_PrefabAsset: {fileID: 0}
  m_GameObject: {fileID: 287743643}
  m_Enabled: 1
  m_EditorHideFlags: 0
  m_Script: {fileID: -619905303, guid: f70555f144d8491a825f0804e09c671c, type: 3}
  m_Name: 
  m_EditorClassIdentifier: 
  m_FirstSelected: {fileID: 0}
  m_sendNavigationEvents: 1
  m_DragThreshold: 10
--- !u!4 &287743646
Transform:
  m_ObjectHideFlags: 0
  m_CorrespondingSourceObject: {fileID: 0}
  m_PrefabInstance: {fileID: 0}
  m_PrefabAsset: {fileID: 0}
  m_GameObject: {fileID: 287743643}
  m_LocalRotation: {x: 0, y: 0, z: 0, w: 1}
  m_LocalPosition: {x: 0, y: 0, z: 0}
  m_LocalScale: {x: 1, y: 1, z: 1}
  m_Children: []
  m_Father: {fileID: 0}
  m_RootOrder: 3
  m_LocalEulerAnglesHint: {x: 0, y: 0, z: 0}
--- !u!1 &519420028
GameObject:
  m_ObjectHideFlags: 0
  m_CorrespondingSourceObject: {fileID: 0}
  m_PrefabInstance: {fileID: 0}
  m_PrefabAsset: {fileID: 0}
  serializedVersion: 6
  m_Component:
  - component: {fileID: 519420032}
  - component: {fileID: 519420031}
  - component: {fileID: 519420029}
  - component: {fileID: 519420030}
  - component: {fileID: 519420033}
  m_Layer: 0
  m_Name: Main Camera
  m_TagString: MainCamera
  m_Icon: {fileID: 0}
  m_NavMeshLayer: 0
  m_StaticEditorFlags: 0
  m_IsActive: 1
--- !u!81 &519420029
AudioListener:
  m_ObjectHideFlags: 0
  m_CorrespondingSourceObject: {fileID: 0}
  m_PrefabInstance: {fileID: 0}
  m_PrefabAsset: {fileID: 0}
  m_GameObject: {fileID: 519420028}
  m_Enabled: 1
--- !u!82 &519420030
AudioSource:
  m_ObjectHideFlags: 0
  m_CorrespondingSourceObject: {fileID: 0}
  m_PrefabInstance: {fileID: 0}
  m_PrefabAsset: {fileID: 0}
  m_GameObject: {fileID: 519420028}
  m_Enabled: 1
  serializedVersion: 4
  OutputAudioMixerGroup: {fileID: 0}
  m_audioClip: {fileID: 0}
  m_PlayOnAwake: 1
  m_Volume: 1
  m_Pitch: 1
  Loop: 0
  Mute: 0
  Spatialize: 0
  SpatializePostEffects: 0
  Priority: 128
  DopplerLevel: 1
  MinDistance: 1
  MaxDistance: 500
  Pan2D: 0
  rolloffMode: 0
  BypassEffects: 0
  BypassListenerEffects: 0
  BypassReverbZones: 0
  rolloffCustomCurve:
    serializedVersion: 2
    m_Curve:
    - serializedVersion: 3
      time: 0
      value: 1
      inSlope: 0
      outSlope: 0
      tangentMode: 0
      weightedMode: 0
      inWeight: 0.33333334
      outWeight: 0.33333334
    - serializedVersion: 3
      time: 1
      value: 0
      inSlope: 0
      outSlope: 0
      tangentMode: 0
      weightedMode: 0
      inWeight: 0.33333334
      outWeight: 0.33333334
    m_PreInfinity: 2
    m_PostInfinity: 2
    m_RotationOrder: 4
  panLevelCustomCurve:
    serializedVersion: 2
    m_Curve:
    - serializedVersion: 3
      time: 0
      value: 0
      inSlope: 0
      outSlope: 0
      tangentMode: 0
      weightedMode: 0
      inWeight: 0.33333334
      outWeight: 0.33333334
    m_PreInfinity: 2
    m_PostInfinity: 2
    m_RotationOrder: 4
  spreadCustomCurve:
    serializedVersion: 2
    m_Curve:
    - serializedVersion: 3
      time: 0
      value: 0
      inSlope: 0
      outSlope: 0
      tangentMode: 0
      weightedMode: 0
      inWeight: 0.33333334
      outWeight: 0.33333334
    m_PreInfinity: 2
    m_PostInfinity: 2
    m_RotationOrder: 4
  reverbZoneMixCustomCurve:
    serializedVersion: 2
    m_Curve:
    - serializedVersion: 3
      time: 0
      value: 1
      inSlope: 0
      outSlope: 0
      tangentMode: 0
      weightedMode: 0
      inWeight: 0.33333334
      outWeight: 0.33333334
    m_PreInfinity: 2
    m_PostInfinity: 2
    m_RotationOrder: 4
--- !u!20 &519420031
Camera:
  m_ObjectHideFlags: 0
  m_CorrespondingSourceObject: {fileID: 0}
  m_PrefabInstance: {fileID: 0}
  m_PrefabAsset: {fileID: 0}
  m_GameObject: {fileID: 519420028}
  m_Enabled: 1
  serializedVersion: 2
  m_ClearFlags: 2
  m_BackGroundColor: {r: 0.11678186, g: 0.109336056, b: 0.122641504, a: 0}
  m_projectionMatrixMode: 1
  m_GateFitMode: 2
  m_FOVAxisMode: 0
  m_SensorSize: {x: 36, y: 24}
  m_LensShift: {x: 0, y: 0}
  m_FocalLength: 50
  m_NormalizedViewPortRect:
    serializedVersion: 2
    x: 0
    y: 0
    width: 1
    height: 1
  near clip plane: 0.3
  far clip plane: 1000
  field of view: 60
  orthographic: 1
  orthographic size: 6.5
  m_Depth: -1
  m_CullingMask:
    serializedVersion: 2
    m_Bits: 4294967295
  m_RenderingPath: -1
  m_TargetTexture: {fileID: 0}
  m_TargetDisplay: 0
  m_TargetEye: 0
  m_HDR: 1
  m_AllowMSAA: 0
  m_AllowDynamicResolution: 0
  m_ForceIntoRT: 0
  m_OcclusionCulling: 0
  m_StereoConvergence: 10
  m_StereoSeparation: 0.022
--- !u!4 &519420032
Transform:
  m_ObjectHideFlags: 0
  m_CorrespondingSourceObject: {fileID: 0}
  m_PrefabInstance: {fileID: 0}
  m_PrefabAsset: {fileID: 0}
  m_GameObject: {fileID: 519420028}
  m_LocalRotation: {x: 0, y: 0, z: 0, w: 1}
  m_LocalPosition: {x: 0, y: 0, z: -10}
  m_LocalScale: {x: 1, y: 1, z: 1}
  m_Children: []
  m_Father: {fileID: 0}
  m_RootOrder: 0
  m_LocalEulerAnglesHint: {x: 0, y: 0, z: 0}
--- !u!114 &519420033
MonoBehaviour:
  m_ObjectHideFlags: 0
  m_CorrespondingSourceObject: {fileID: 0}
  m_PrefabInstance: {fileID: 0}
  m_PrefabAsset: {fileID: 0}
  m_GameObject: {fileID: 519420028}
  m_Enabled: 1
  m_EditorHideFlags: 0
  m_Script: {fileID: 11500000, guid: 0065275e54df0f94b8c776e6744042f3, type: 3}
  m_Name: 
  m_EditorClassIdentifier: 
--- !u!1001 &578053418
PrefabInstance:
  m_ObjectHideFlags: 0
  serializedVersion: 2
  m_Modification:
    m_TransformParent: {fileID: 141378674}
    m_Modifications:
    - target: {fileID: 523662259, guid: ddc709fe453312c41974078b83db4f0c, type: 3}
      propertyPath: m_Name
      value: Card (4)
      objectReference: {fileID: 0}
    - target: {fileID: 2038563898, guid: ddc709fe453312c41974078b83db4f0c, type: 3}
      propertyPath: m_LocalPosition.x
      value: -2.1
      objectReference: {fileID: 0}
    - target: {fileID: 2038563898, guid: ddc709fe453312c41974078b83db4f0c, type: 3}
      propertyPath: m_LocalPosition.y
      value: -2.66
      objectReference: {fileID: 0}
    - target: {fileID: 2038563898, guid: ddc709fe453312c41974078b83db4f0c, type: 3}
      propertyPath: m_LocalPosition.z
      value: 0
      objectReference: {fileID: 0}
    - target: {fileID: 2038563898, guid: ddc709fe453312c41974078b83db4f0c, type: 3}
      propertyPath: m_LocalRotation.x
      value: -0
      objectReference: {fileID: 0}
    - target: {fileID: 2038563898, guid: ddc709fe453312c41974078b83db4f0c, type: 3}
      propertyPath: m_LocalRotation.y
      value: -0
      objectReference: {fileID: 0}
    - target: {fileID: 2038563898, guid: ddc709fe453312c41974078b83db4f0c, type: 3}
      propertyPath: m_LocalRotation.z
      value: -0
      objectReference: {fileID: 0}
    - target: {fileID: 2038563898, guid: ddc709fe453312c41974078b83db4f0c, type: 3}
      propertyPath: m_LocalRotation.w
      value: 1
      objectReference: {fileID: 0}
    - target: {fileID: 2038563898, guid: ddc709fe453312c41974078b83db4f0c, type: 3}
      propertyPath: m_RootOrder
      value: 0
      objectReference: {fileID: 0}
    - target: {fileID: 2038563898, guid: ddc709fe453312c41974078b83db4f0c, type: 3}
      propertyPath: m_LocalEulerAnglesHint.x
      value: 0
      objectReference: {fileID: 0}
    - target: {fileID: 2038563898, guid: ddc709fe453312c41974078b83db4f0c, type: 3}
      propertyPath: m_LocalEulerAnglesHint.y
      value: 0
      objectReference: {fileID: 0}
    - target: {fileID: 2038563898, guid: ddc709fe453312c41974078b83db4f0c, type: 3}
      propertyPath: m_LocalEulerAnglesHint.z
      value: 0
      objectReference: {fileID: 0}
    - target: {fileID: 2038563898, guid: ddc709fe453312c41974078b83db4f0c, type: 3}
      propertyPath: m_LocalScale.z
      value: 0.099999994
      objectReference: {fileID: 0}
    - target: {fileID: 523662260, guid: ddc709fe453312c41974078b83db4f0c, type: 3}
      propertyPath: MapPosition.x
      value: 2
      objectReference: {fileID: 0}
    - target: {fileID: 523662260, guid: ddc709fe453312c41974078b83db4f0c, type: 3}
      propertyPath: MapPosition.y
      value: 0
      objectReference: {fileID: 0}
    - target: {fileID: 8960624122508389360, guid: ddc709fe453312c41974078b83db4f0c,
        type: 3}
      propertyPath: m_havePropertiesChanged
      value: 1
      objectReference: {fileID: 0}
    - target: {fileID: 8960624122508389360, guid: ddc709fe453312c41974078b83db4f0c,
        type: 3}
      propertyPath: m_isInputParsingRequired
      value: 1
      objectReference: {fileID: 0}
    - target: {fileID: 1642643752720957356, guid: ddc709fe453312c41974078b83db4f0c,
        type: 3}
      propertyPath: m_havePropertiesChanged
      value: 1
      objectReference: {fileID: 0}
    - target: {fileID: 1642643752720957356, guid: ddc709fe453312c41974078b83db4f0c,
        type: 3}
      propertyPath: m_isInputParsingRequired
      value: 1
      objectReference: {fileID: 0}
    - target: {fileID: 6618650730475966385, guid: ddc709fe453312c41974078b83db4f0c,
        type: 3}
      propertyPath: m_havePropertiesChanged
      value: 1
      objectReference: {fileID: 0}
    - target: {fileID: 6618650730475966385, guid: ddc709fe453312c41974078b83db4f0c,
        type: 3}
      propertyPath: m_isInputParsingRequired
      value: 1
      objectReference: {fileID: 0}
    - target: {fileID: 8597044568950305786, guid: ddc709fe453312c41974078b83db4f0c,
        type: 3}
      propertyPath: m_IsActive
      value: 0
      objectReference: {fileID: 0}
    m_RemovedComponents: []
  m_SourcePrefab: {fileID: 100100000, guid: ddc709fe453312c41974078b83db4f0c, type: 3}
--- !u!4 &578053419 stripped
Transform:
  m_CorrespondingSourceObject: {fileID: 2038563898, guid: ddc709fe453312c41974078b83db4f0c,
    type: 3}
  m_PrefabInstance: {fileID: 578053418}
  m_PrefabAsset: {fileID: 0}
--- !u!1001 &884446562
PrefabInstance:
  m_ObjectHideFlags: 0
  serializedVersion: 2
  m_Modification:
    m_TransformParent: {fileID: 141378674}
    m_Modifications:
    - target: {fileID: 523662259, guid: ddc709fe453312c41974078b83db4f0c, type: 3}
      propertyPath: m_Name
      value: Card (2)
      objectReference: {fileID: 0}
    - target: {fileID: 2038563898, guid: ddc709fe453312c41974078b83db4f0c, type: 3}
      propertyPath: m_LocalPosition.x
      value: 2.1
      objectReference: {fileID: 0}
    - target: {fileID: 2038563898, guid: ddc709fe453312c41974078b83db4f0c, type: 3}
      propertyPath: m_LocalPosition.y
      value: 3
      objectReference: {fileID: 0}
    - target: {fileID: 2038563898, guid: ddc709fe453312c41974078b83db4f0c, type: 3}
      propertyPath: m_LocalPosition.z
      value: 0
      objectReference: {fileID: 0}
    - target: {fileID: 2038563898, guid: ddc709fe453312c41974078b83db4f0c, type: 3}
      propertyPath: m_LocalRotation.x
      value: -0
      objectReference: {fileID: 0}
    - target: {fileID: 2038563898, guid: ddc709fe453312c41974078b83db4f0c, type: 3}
      propertyPath: m_LocalRotation.y
      value: -0
      objectReference: {fileID: 0}
    - target: {fileID: 2038563898, guid: ddc709fe453312c41974078b83db4f0c, type: 3}
      propertyPath: m_LocalRotation.z
      value: -0
      objectReference: {fileID: 0}
    - target: {fileID: 2038563898, guid: ddc709fe453312c41974078b83db4f0c, type: 3}
      propertyPath: m_LocalRotation.w
      value: 1
      objectReference: {fileID: 0}
    - target: {fileID: 2038563898, guid: ddc709fe453312c41974078b83db4f0c, type: 3}
      propertyPath: m_RootOrder
      value: 5
      objectReference: {fileID: 0}
    - target: {fileID: 2038563898, guid: ddc709fe453312c41974078b83db4f0c, type: 3}
      propertyPath: m_LocalEulerAnglesHint.x
      value: 0
      objectReference: {fileID: 0}
    - target: {fileID: 2038563898, guid: ddc709fe453312c41974078b83db4f0c, type: 3}
      propertyPath: m_LocalEulerAnglesHint.y
      value: 0
      objectReference: {fileID: 0}
    - target: {fileID: 2038563898, guid: ddc709fe453312c41974078b83db4f0c, type: 3}
      propertyPath: m_LocalEulerAnglesHint.z
      value: 0
      objectReference: {fileID: 0}
    - target: {fileID: 2038563898, guid: ddc709fe453312c41974078b83db4f0c, type: 3}
      propertyPath: m_LocalScale.z
      value: 0.099999994
      objectReference: {fileID: 0}
    - target: {fileID: 523662260, guid: ddc709fe453312c41974078b83db4f0c, type: 3}
      propertyPath: MapPosition.y
      value: 2
      objectReference: {fileID: 0}
    - target: {fileID: 8960624122508389360, guid: ddc709fe453312c41974078b83db4f0c,
        type: 3}
      propertyPath: m_havePropertiesChanged
      value: 1
      objectReference: {fileID: 0}
    - target: {fileID: 8960624122508389360, guid: ddc709fe453312c41974078b83db4f0c,
        type: 3}
      propertyPath: m_isInputParsingRequired
      value: 1
      objectReference: {fileID: 0}
    - target: {fileID: 1642643752720957356, guid: ddc709fe453312c41974078b83db4f0c,
        type: 3}
      propertyPath: m_havePropertiesChanged
      value: 1
      objectReference: {fileID: 0}
    - target: {fileID: 1642643752720957356, guid: ddc709fe453312c41974078b83db4f0c,
        type: 3}
      propertyPath: m_isInputParsingRequired
      value: 1
      objectReference: {fileID: 0}
    - target: {fileID: 6618650730475966385, guid: ddc709fe453312c41974078b83db4f0c,
        type: 3}
      propertyPath: m_havePropertiesChanged
      value: 1
      objectReference: {fileID: 0}
    - target: {fileID: 6618650730475966385, guid: ddc709fe453312c41974078b83db4f0c,
        type: 3}
      propertyPath: m_isInputParsingRequired
      value: 1
      objectReference: {fileID: 0}
    - target: {fileID: 8597044568950305786, guid: ddc709fe453312c41974078b83db4f0c,
        type: 3}
      propertyPath: m_IsActive
      value: 0
      objectReference: {fileID: 0}
    m_RemovedComponents: []
  m_SourcePrefab: {fileID: 100100000, guid: ddc709fe453312c41974078b83db4f0c, type: 3}
--- !u!4 &884446563 stripped
Transform:
  m_CorrespondingSourceObject: {fileID: 2038563898, guid: ddc709fe453312c41974078b83db4f0c,
    type: 3}
  m_PrefabInstance: {fileID: 884446562}
  m_PrefabAsset: {fileID: 0}
--- !u!1001 &925210986
PrefabInstance:
  m_ObjectHideFlags: 0
  serializedVersion: 2
  m_Modification:
    m_TransformParent: {fileID: 141378674}
    m_Modifications:
    - target: {fileID: 523662259, guid: ddc709fe453312c41974078b83db4f0c, type: 3}
      propertyPath: m_Name
      value: Card (5)
      objectReference: {fileID: 0}
    - target: {fileID: 2038563898, guid: ddc709fe453312c41974078b83db4f0c, type: 3}
      propertyPath: m_LocalPosition.x
      value: 0
      objectReference: {fileID: 0}
    - target: {fileID: 2038563898, guid: ddc709fe453312c41974078b83db4f0c, type: 3}
      propertyPath: m_LocalPosition.y
      value: -2.66
      objectReference: {fileID: 0}
    - target: {fileID: 2038563898, guid: ddc709fe453312c41974078b83db4f0c, type: 3}
      propertyPath: m_LocalPosition.z
      value: 0
      objectReference: {fileID: 0}
    - target: {fileID: 2038563898, guid: ddc709fe453312c41974078b83db4f0c, type: 3}
      propertyPath: m_LocalRotation.x
      value: -0
      objectReference: {fileID: 0}
    - target: {fileID: 2038563898, guid: ddc709fe453312c41974078b83db4f0c, type: 3}
      propertyPath: m_LocalRotation.y
      value: -0
      objectReference: {fileID: 0}
    - target: {fileID: 2038563898, guid: ddc709fe453312c41974078b83db4f0c, type: 3}
      propertyPath: m_LocalRotation.z
      value: -0
      objectReference: {fileID: 0}
    - target: {fileID: 2038563898, guid: ddc709fe453312c41974078b83db4f0c, type: 3}
      propertyPath: m_LocalRotation.w
      value: 1
      objectReference: {fileID: 0}
    - target: {fileID: 2038563898, guid: ddc709fe453312c41974078b83db4f0c, type: 3}
      propertyPath: m_RootOrder
      value: 1
      objectReference: {fileID: 0}
    - target: {fileID: 2038563898, guid: ddc709fe453312c41974078b83db4f0c, type: 3}
      propertyPath: m_LocalEulerAnglesHint.x
      value: 0
      objectReference: {fileID: 0}
    - target: {fileID: 2038563898, guid: ddc709fe453312c41974078b83db4f0c, type: 3}
      propertyPath: m_LocalEulerAnglesHint.y
      value: 0
      objectReference: {fileID: 0}
    - target: {fileID: 2038563898, guid: ddc709fe453312c41974078b83db4f0c, type: 3}
      propertyPath: m_LocalEulerAnglesHint.z
      value: 0
      objectReference: {fileID: 0}
    - target: {fileID: 2038563898, guid: ddc709fe453312c41974078b83db4f0c, type: 3}
      propertyPath: m_LocalScale.z
      value: 0.099999994
      objectReference: {fileID: 0}
    - target: {fileID: 523662260, guid: ddc709fe453312c41974078b83db4f0c, type: 3}
      propertyPath: MapPosition.x
      value: 2
      objectReference: {fileID: 0}
    - target: {fileID: 523662260, guid: ddc709fe453312c41974078b83db4f0c, type: 3}
      propertyPath: MapPosition.y
      value: 1
      objectReference: {fileID: 0}
    - target: {fileID: 8960624122508389360, guid: ddc709fe453312c41974078b83db4f0c,
        type: 3}
      propertyPath: m_havePropertiesChanged
      value: 1
      objectReference: {fileID: 0}
    - target: {fileID: 8960624122508389360, guid: ddc709fe453312c41974078b83db4f0c,
        type: 3}
      propertyPath: m_isInputParsingRequired
      value: 1
      objectReference: {fileID: 0}
    - target: {fileID: 1642643752720957356, guid: ddc709fe453312c41974078b83db4f0c,
        type: 3}
      propertyPath: m_havePropertiesChanged
      value: 1
      objectReference: {fileID: 0}
    - target: {fileID: 1642643752720957356, guid: ddc709fe453312c41974078b83db4f0c,
        type: 3}
      propertyPath: m_isInputParsingRequired
      value: 1
      objectReference: {fileID: 0}
    - target: {fileID: 6618650730475966385, guid: ddc709fe453312c41974078b83db4f0c,
        type: 3}
      propertyPath: m_havePropertiesChanged
      value: 1
      objectReference: {fileID: 0}
    - target: {fileID: 6618650730475966385, guid: ddc709fe453312c41974078b83db4f0c,
        type: 3}
      propertyPath: m_isInputParsingRequired
      value: 1
      objectReference: {fileID: 0}
    - target: {fileID: 8597044568950305786, guid: ddc709fe453312c41974078b83db4f0c,
        type: 3}
      propertyPath: m_IsActive
      value: 0
      objectReference: {fileID: 0}
    m_RemovedComponents: []
  m_SourcePrefab: {fileID: 100100000, guid: ddc709fe453312c41974078b83db4f0c, type: 3}
--- !u!4 &925210987 stripped
Transform:
  m_CorrespondingSourceObject: {fileID: 2038563898, guid: ddc709fe453312c41974078b83db4f0c,
    type: 3}
  m_PrefabInstance: {fileID: 925210986}
  m_PrefabAsset: {fileID: 0}
--- !u!114 &1011897626 stripped
MonoBehaviour:
  m_CorrespondingSourceObject: {fileID: 819074443201762730, guid: 01c0a4fb94129944085e0ebec12a8c2a,
    type: 3}
  m_PrefabInstance: {fileID: 819074443810963632}
  m_PrefabAsset: {fileID: 0}
  m_GameObject: {fileID: 0}
  m_Enabled: 1
  m_EditorHideFlags: 0
  m_Script: {fileID: 11500000, guid: f4688fdb7df04437aeb418b961361dc5, type: 3}
  m_Name: 
  m_EditorClassIdentifier: 
--- !u!1001 &1612015531
PrefabInstance:
  m_ObjectHideFlags: 0
  serializedVersion: 2
  m_Modification:
    m_TransformParent: {fileID: 141378674}
    m_Modifications:
    - target: {fileID: 523662259, guid: ddc709fe453312c41974078b83db4f0c, type: 3}
      propertyPath: m_Name
      value: Card (2)
      objectReference: {fileID: 0}
    - target: {fileID: 2038563898, guid: ddc709fe453312c41974078b83db4f0c, type: 3}
      propertyPath: m_LocalPosition.x
      value: 2.1
      objectReference: {fileID: 0}
    - target: {fileID: 2038563898, guid: ddc709fe453312c41974078b83db4f0c, type: 3}
      propertyPath: m_LocalPosition.y
      value: 0.1699999
      objectReference: {fileID: 0}
    - target: {fileID: 2038563898, guid: ddc709fe453312c41974078b83db4f0c, type: 3}
      propertyPath: m_LocalPosition.z
      value: 0
      objectReference: {fileID: 0}
    - target: {fileID: 2038563898, guid: ddc709fe453312c41974078b83db4f0c, type: 3}
      propertyPath: m_LocalRotation.x
      value: -0
      objectReference: {fileID: 0}
    - target: {fileID: 2038563898, guid: ddc709fe453312c41974078b83db4f0c, type: 3}
      propertyPath: m_LocalRotation.y
      value: -0
      objectReference: {fileID: 0}
    - target: {fileID: 2038563898, guid: ddc709fe453312c41974078b83db4f0c, type: 3}
      propertyPath: m_LocalRotation.z
      value: -0
      objectReference: {fileID: 0}
    - target: {fileID: 2038563898, guid: ddc709fe453312c41974078b83db4f0c, type: 3}
      propertyPath: m_LocalRotation.w
      value: 1
      objectReference: {fileID: 0}
    - target: {fileID: 2038563898, guid: ddc709fe453312c41974078b83db4f0c, type: 3}
      propertyPath: m_RootOrder
      value: 8
      objectReference: {fileID: 0}
    - target: {fileID: 2038563898, guid: ddc709fe453312c41974078b83db4f0c, type: 3}
      propertyPath: m_LocalEulerAnglesHint.x
      value: 0
      objectReference: {fileID: 0}
    - target: {fileID: 2038563898, guid: ddc709fe453312c41974078b83db4f0c, type: 3}
      propertyPath: m_LocalEulerAnglesHint.y
      value: 0
      objectReference: {fileID: 0}
    - target: {fileID: 2038563898, guid: ddc709fe453312c41974078b83db4f0c, type: 3}
      propertyPath: m_LocalEulerAnglesHint.z
      value: 0
      objectReference: {fileID: 0}
    - target: {fileID: 2038563898, guid: ddc709fe453312c41974078b83db4f0c, type: 3}
      propertyPath: m_LocalScale.z
      value: 0.099999994
      objectReference: {fileID: 0}
    - target: {fileID: 523662260, guid: ddc709fe453312c41974078b83db4f0c, type: 3}
      propertyPath: MapPosition.x
      value: 1
      objectReference: {fileID: 0}
    - target: {fileID: 523662260, guid: ddc709fe453312c41974078b83db4f0c, type: 3}
      propertyPath: MapPosition.y
      value: 2
      objectReference: {fileID: 0}
    - target: {fileID: 8960624122508389360, guid: ddc709fe453312c41974078b83db4f0c,
        type: 3}
      propertyPath: m_havePropertiesChanged
      value: 1
      objectReference: {fileID: 0}
    - target: {fileID: 8960624122508389360, guid: ddc709fe453312c41974078b83db4f0c,
        type: 3}
      propertyPath: m_isInputParsingRequired
      value: 1
      objectReference: {fileID: 0}
    - target: {fileID: 1642643752720957356, guid: ddc709fe453312c41974078b83db4f0c,
        type: 3}
      propertyPath: m_havePropertiesChanged
      value: 1
      objectReference: {fileID: 0}
    - target: {fileID: 1642643752720957356, guid: ddc709fe453312c41974078b83db4f0c,
        type: 3}
      propertyPath: m_isInputParsingRequired
      value: 1
      objectReference: {fileID: 0}
    - target: {fileID: 6618650730475966385, guid: ddc709fe453312c41974078b83db4f0c,
        type: 3}
      propertyPath: m_havePropertiesChanged
      value: 1
      objectReference: {fileID: 0}
    - target: {fileID: 6618650730475966385, guid: ddc709fe453312c41974078b83db4f0c,
        type: 3}
      propertyPath: m_isInputParsingRequired
      value: 1
      objectReference: {fileID: 0}
    - target: {fileID: 8597044568950305786, guid: ddc709fe453312c41974078b83db4f0c,
        type: 3}
      propertyPath: m_IsActive
      value: 0
      objectReference: {fileID: 0}
    m_RemovedComponents: []
  m_SourcePrefab: {fileID: 100100000, guid: ddc709fe453312c41974078b83db4f0c, type: 3}
--- !u!4 &1612015532 stripped
Transform:
  m_CorrespondingSourceObject: {fileID: 2038563898, guid: ddc709fe453312c41974078b83db4f0c,
    type: 3}
  m_PrefabInstance: {fileID: 1612015531}
  m_PrefabAsset: {fileID: 0}
--- !u!1001 &1679606268
PrefabInstance:
  m_ObjectHideFlags: 0
  serializedVersion: 2
  m_Modification:
    m_TransformParent: {fileID: 141378674}
    m_Modifications:
    - target: {fileID: 523662259, guid: ddc709fe453312c41974078b83db4f0c, type: 3}
      propertyPath: m_Name
      value: Card (1)
      objectReference: {fileID: 0}
    - target: {fileID: 2038563898, guid: ddc709fe453312c41974078b83db4f0c, type: 3}
      propertyPath: m_LocalPosition.x
      value: 0
      objectReference: {fileID: 0}
    - target: {fileID: 2038563898, guid: ddc709fe453312c41974078b83db4f0c, type: 3}
      propertyPath: m_LocalPosition.y
      value: 3
      objectReference: {fileID: 0}
    - target: {fileID: 2038563898, guid: ddc709fe453312c41974078b83db4f0c, type: 3}
      propertyPath: m_LocalPosition.z
      value: 0
      objectReference: {fileID: 0}
    - target: {fileID: 2038563898, guid: ddc709fe453312c41974078b83db4f0c, type: 3}
      propertyPath: m_LocalRotation.x
      value: -0
      objectReference: {fileID: 0}
    - target: {fileID: 2038563898, guid: ddc709fe453312c41974078b83db4f0c, type: 3}
      propertyPath: m_LocalRotation.y
      value: -0
      objectReference: {fileID: 0}
    - target: {fileID: 2038563898, guid: ddc709fe453312c41974078b83db4f0c, type: 3}
      propertyPath: m_LocalRotation.z
      value: -0
      objectReference: {fileID: 0}
    - target: {fileID: 2038563898, guid: ddc709fe453312c41974078b83db4f0c, type: 3}
      propertyPath: m_LocalRotation.w
      value: 1
      objectReference: {fileID: 0}
    - target: {fileID: 2038563898, guid: ddc709fe453312c41974078b83db4f0c, type: 3}
      propertyPath: m_RootOrder
      value: 4
      objectReference: {fileID: 0}
    - target: {fileID: 2038563898, guid: ddc709fe453312c41974078b83db4f0c, type: 3}
      propertyPath: m_LocalEulerAnglesHint.x
      value: 0
      objectReference: {fileID: 0}
    - target: {fileID: 2038563898, guid: ddc709fe453312c41974078b83db4f0c, type: 3}
      propertyPath: m_LocalEulerAnglesHint.y
      value: 0
      objectReference: {fileID: 0}
    - target: {fileID: 2038563898, guid: ddc709fe453312c41974078b83db4f0c, type: 3}
      propertyPath: m_LocalEulerAnglesHint.z
      value: 0
      objectReference: {fileID: 0}
    - target: {fileID: 2038563898, guid: ddc709fe453312c41974078b83db4f0c, type: 3}
      propertyPath: m_LocalScale.z
      value: 0.099999994
      objectReference: {fileID: 0}
    - target: {fileID: 523662260, guid: ddc709fe453312c41974078b83db4f0c, type: 3}
      propertyPath: MapPosition.y
      value: 1
      objectReference: {fileID: 0}
    - target: {fileID: 8960624122508389360, guid: ddc709fe453312c41974078b83db4f0c,
        type: 3}
      propertyPath: m_havePropertiesChanged
      value: 1
      objectReference: {fileID: 0}
    - target: {fileID: 8960624122508389360, guid: ddc709fe453312c41974078b83db4f0c,
        type: 3}
      propertyPath: m_isInputParsingRequired
      value: 1
      objectReference: {fileID: 0}
    - target: {fileID: 1642643752720957356, guid: ddc709fe453312c41974078b83db4f0c,
        type: 3}
      propertyPath: m_havePropertiesChanged
      value: 1
      objectReference: {fileID: 0}
    - target: {fileID: 1642643752720957356, guid: ddc709fe453312c41974078b83db4f0c,
        type: 3}
      propertyPath: m_isInputParsingRequired
      value: 1
      objectReference: {fileID: 0}
    - target: {fileID: 6618650730475966385, guid: ddc709fe453312c41974078b83db4f0c,
        type: 3}
      propertyPath: m_havePropertiesChanged
      value: 1
      objectReference: {fileID: 0}
    - target: {fileID: 6618650730475966385, guid: ddc709fe453312c41974078b83db4f0c,
        type: 3}
      propertyPath: m_isInputParsingRequired
      value: 1
      objectReference: {fileID: 0}
    - target: {fileID: 8597044568950305786, guid: ddc709fe453312c41974078b83db4f0c,
        type: 3}
      propertyPath: m_IsActive
      value: 0
      objectReference: {fileID: 0}
    m_RemovedComponents: []
  m_SourcePrefab: {fileID: 100100000, guid: ddc709fe453312c41974078b83db4f0c, type: 3}
--- !u!4 &1679606269 stripped
Transform:
  m_CorrespondingSourceObject: {fileID: 2038563898, guid: ddc709fe453312c41974078b83db4f0c,
    type: 3}
  m_PrefabInstance: {fileID: 1679606268}
  m_PrefabAsset: {fileID: 0}
--- !u!1001 &1798906940
PrefabInstance:
  m_ObjectHideFlags: 0
  serializedVersion: 2
  m_Modification:
    m_TransformParent: {fileID: 141378674}
    m_Modifications:
    - target: {fileID: 523662259, guid: ddc709fe453312c41974078b83db4f0c, type: 3}
      propertyPath: m_Name
      value: Card (1)
      objectReference: {fileID: 0}
    - target: {fileID: 2038563898, guid: ddc709fe453312c41974078b83db4f0c, type: 3}
      propertyPath: m_LocalPosition.x
      value: 0
      objectReference: {fileID: 0}
    - target: {fileID: 2038563898, guid: ddc709fe453312c41974078b83db4f0c, type: 3}
      propertyPath: m_LocalPosition.y
      value: 0.1699999
      objectReference: {fileID: 0}
    - target: {fileID: 2038563898, guid: ddc709fe453312c41974078b83db4f0c, type: 3}
      propertyPath: m_LocalPosition.z
      value: 0
      objectReference: {fileID: 0}
    - target: {fileID: 2038563898, guid: ddc709fe453312c41974078b83db4f0c, type: 3}
      propertyPath: m_LocalRotation.x
      value: -0
      objectReference: {fileID: 0}
    - target: {fileID: 2038563898, guid: ddc709fe453312c41974078b83db4f0c, type: 3}
      propertyPath: m_LocalRotation.y
      value: -0
      objectReference: {fileID: 0}
    - target: {fileID: 2038563898, guid: ddc709fe453312c41974078b83db4f0c, type: 3}
      propertyPath: m_LocalRotation.z
      value: -0
      objectReference: {fileID: 0}
    - target: {fileID: 2038563898, guid: ddc709fe453312c41974078b83db4f0c, type: 3}
      propertyPath: m_LocalRotation.w
      value: 1
      objectReference: {fileID: 0}
    - target: {fileID: 2038563898, guid: ddc709fe453312c41974078b83db4f0c, type: 3}
      propertyPath: m_RootOrder
      value: 7
      objectReference: {fileID: 0}
    - target: {fileID: 2038563898, guid: ddc709fe453312c41974078b83db4f0c, type: 3}
      propertyPath: m_LocalEulerAnglesHint.x
      value: 0
      objectReference: {fileID: 0}
    - target: {fileID: 2038563898, guid: ddc709fe453312c41974078b83db4f0c, type: 3}
      propertyPath: m_LocalEulerAnglesHint.y
      value: 0
      objectReference: {fileID: 0}
    - target: {fileID: 2038563898, guid: ddc709fe453312c41974078b83db4f0c, type: 3}
      propertyPath: m_LocalEulerAnglesHint.z
      value: 0
      objectReference: {fileID: 0}
    - target: {fileID: 2038563898, guid: ddc709fe453312c41974078b83db4f0c, type: 3}
      propertyPath: m_LocalScale.z
      value: 0.099999994
      objectReference: {fileID: 0}
    - target: {fileID: 523662260, guid: ddc709fe453312c41974078b83db4f0c, type: 3}
      propertyPath: MapPosition.x
      value: 1
      objectReference: {fileID: 0}
    - target: {fileID: 523662260, guid: ddc709fe453312c41974078b83db4f0c, type: 3}
      propertyPath: MapPosition.y
      value: 1
      objectReference: {fileID: 0}
    - target: {fileID: 523662260, guid: ddc709fe453312c41974078b83db4f0c, type: 3}
      propertyPath: IsHeroCard
      value: 1
      objectReference: {fileID: 0}
    - target: {fileID: 8960624122508389360, guid: ddc709fe453312c41974078b83db4f0c,
        type: 3}
      propertyPath: m_havePropertiesChanged
      value: 1
      objectReference: {fileID: 0}
    - target: {fileID: 8960624122508389360, guid: ddc709fe453312c41974078b83db4f0c,
        type: 3}
      propertyPath: m_isInputParsingRequired
      value: 1
      objectReference: {fileID: 0}
    - target: {fileID: 1642643752720957356, guid: ddc709fe453312c41974078b83db4f0c,
        type: 3}
      propertyPath: m_havePropertiesChanged
      value: 1
      objectReference: {fileID: 0}
    - target: {fileID: 1642643752720957356, guid: ddc709fe453312c41974078b83db4f0c,
        type: 3}
      propertyPath: m_isInputParsingRequired
      value: 1
      objectReference: {fileID: 0}
    - target: {fileID: 6618650730475966385, guid: ddc709fe453312c41974078b83db4f0c,
        type: 3}
      propertyPath: m_havePropertiesChanged
      value: 1
      objectReference: {fileID: 0}
    - target: {fileID: 6618650730475966385, guid: ddc709fe453312c41974078b83db4f0c,
        type: 3}
      propertyPath: m_isInputParsingRequired
      value: 1
      objectReference: {fileID: 0}
    - target: {fileID: 9066341001861430327, guid: ddc709fe453312c41974078b83db4f0c,
        type: 3}
      propertyPath: m_IsActive
      value: 0
      objectReference: {fileID: 0}
    - target: {fileID: 8597044568950305786, guid: ddc709fe453312c41974078b83db4f0c,
        type: 3}
      propertyPath: m_IsActive
      value: 0
      objectReference: {fileID: 0}
    m_RemovedComponents: []
  m_SourcePrefab: {fileID: 100100000, guid: ddc709fe453312c41974078b83db4f0c, type: 3}
--- !u!4 &1798906941 stripped
Transform:
  m_CorrespondingSourceObject: {fileID: 2038563898, guid: ddc709fe453312c41974078b83db4f0c,
    type: 3}
  m_PrefabInstance: {fileID: 1798906940}
  m_PrefabAsset: {fileID: 0}
--- !u!1001 &819074443810963632
PrefabInstance:
  m_ObjectHideFlags: 0
  serializedVersion: 2
  m_Modification:
    m_TransformParent: {fileID: 0}
    m_Modifications:
    - target: {fileID: 819074443913732254, guid: 01c0a4fb94129944085e0ebec12a8c2a,
        type: 3}
      propertyPath: m_Name
      value: CoinCanvas
      objectReference: {fileID: 0}
    - target: {fileID: 819074443201762730, guid: 01c0a4fb94129944085e0ebec12a8c2a,
        type: 3}
      propertyPath: m_havePropertiesChanged
      value: 1
      objectReference: {fileID: 0}
    - target: {fileID: 819074443201762730, guid: 01c0a4fb94129944085e0ebec12a8c2a,
        type: 3}
      propertyPath: m_isInputParsingRequired
      value: 1
      objectReference: {fileID: 0}
    - target: {fileID: 819074443913732226, guid: 01c0a4fb94129944085e0ebec12a8c2a,
        type: 3}
      propertyPath: m_LocalPosition.x
      value: 0
      objectReference: {fileID: 0}
    - target: {fileID: 819074443913732226, guid: 01c0a4fb94129944085e0ebec12a8c2a,
        type: 3}
      propertyPath: m_LocalPosition.y
      value: 0
      objectReference: {fileID: 0}
    - target: {fileID: 819074443913732226, guid: 01c0a4fb94129944085e0ebec12a8c2a,
        type: 3}
      propertyPath: m_LocalPosition.z
      value: 0
      objectReference: {fileID: 0}
    - target: {fileID: 819074443913732226, guid: 01c0a4fb94129944085e0ebec12a8c2a,
        type: 3}
      propertyPath: m_LocalRotation.x
      value: 0
      objectReference: {fileID: 0}
    - target: {fileID: 819074443913732226, guid: 01c0a4fb94129944085e0ebec12a8c2a,
        type: 3}
      propertyPath: m_LocalRotation.y
      value: 0
      objectReference: {fileID: 0}
    - target: {fileID: 819074443913732226, guid: 01c0a4fb94129944085e0ebec12a8c2a,
        type: 3}
      propertyPath: m_LocalRotation.z
      value: 0
      objectReference: {fileID: 0}
    - target: {fileID: 819074443913732226, guid: 01c0a4fb94129944085e0ebec12a8c2a,
        type: 3}
      propertyPath: m_LocalRotation.w
      value: 1
      objectReference: {fileID: 0}
    - target: {fileID: 819074443913732226, guid: 01c0a4fb94129944085e0ebec12a8c2a,
        type: 3}
      propertyPath: m_RootOrder
      value: 2
      objectReference: {fileID: 0}
    - target: {fileID: 819074443913732226, guid: 01c0a4fb94129944085e0ebec12a8c2a,
        type: 3}
      propertyPath: m_LocalEulerAnglesHint.x
      value: 0
      objectReference: {fileID: 0}
    - target: {fileID: 819074443913732226, guid: 01c0a4fb94129944085e0ebec12a8c2a,
        type: 3}
      propertyPath: m_LocalEulerAnglesHint.y
      value: 0
      objectReference: {fileID: 0}
    - target: {fileID: 819074443913732226, guid: 01c0a4fb94129944085e0ebec12a8c2a,
        type: 3}
      propertyPath: m_LocalEulerAnglesHint.z
      value: 0
      objectReference: {fileID: 0}
    - target: {fileID: 819074443913732226, guid: 01c0a4fb94129944085e0ebec12a8c2a,
        type: 3}
      propertyPath: m_AnchoredPosition.x
      value: 2.25
      objectReference: {fileID: 0}
    - target: {fileID: 819074443913732226, guid: 01c0a4fb94129944085e0ebec12a8c2a,
        type: 3}
      propertyPath: m_AnchoredPosition.y
      value: 5.001
      objectReference: {fileID: 0}
    - target: {fileID: 819074443913732226, guid: 01c0a4fb94129944085e0ebec12a8c2a,
        type: 3}
      propertyPath: m_SizeDelta.x
      value: 75
      objectReference: {fileID: 0}
    - target: {fileID: 819074443913732226, guid: 01c0a4fb94129944085e0ebec12a8c2a,
        type: 3}
      propertyPath: m_SizeDelta.y
      value: 50
      objectReference: {fileID: 0}
    - target: {fileID: 819074443913732226, guid: 01c0a4fb94129944085e0ebec12a8c2a,
        type: 3}
      propertyPath: m_AnchorMin.x
      value: 0
      objectReference: {fileID: 0}
    - target: {fileID: 819074443913732226, guid: 01c0a4fb94129944085e0ebec12a8c2a,
        type: 3}
      propertyPath: m_AnchorMin.y
      value: 0
      objectReference: {fileID: 0}
    - target: {fileID: 819074443913732226, guid: 01c0a4fb94129944085e0ebec12a8c2a,
        type: 3}
      propertyPath: m_AnchorMax.x
      value: 0
      objectReference: {fileID: 0}
    - target: {fileID: 819074443913732226, guid: 01c0a4fb94129944085e0ebec12a8c2a,
        type: 3}
      propertyPath: m_AnchorMax.y
      value: 0
      objectReference: {fileID: 0}
    - target: {fileID: 819074443913732226, guid: 01c0a4fb94129944085e0ebec12a8c2a,
        type: 3}
      propertyPath: m_Pivot.x
      value: 0.5
      objectReference: {fileID: 0}
    - target: {fileID: 819074443913732226, guid: 01c0a4fb94129944085e0ebec12a8c2a,
        type: 3}
      propertyPath: m_Pivot.y
      value: 0.5
      objectReference: {fileID: 0}
    - target: {fileID: 8514424062085522774, guid: 01c0a4fb94129944085e0ebec12a8c2a,
        type: 3}
      propertyPath: IsGlobalCoinAmount
      value: 0
      objectReference: {fileID: 0}
    m_RemovedComponents: []
  m_SourcePrefab: {fileID: 100100000, guid: 01c0a4fb94129944085e0ebec12a8c2a, type: 3}
